drug	disease	ctd_flag	new_flag
DB00678	kidney.diseases	1	approved
DB00678	diabetes.mellitus.type.2	2	unknown
DB01169	leukemia.myeloid.acute	1	approved
DB01169	leukemia	2	clinical_trials
DB00674	alzheimer.disease	1	approved
DB00675	breast.neoplasms	1	approved
DB00672	diabetes.mellitus	1	approved
DB00672	diabetes.mellitus.type.2	1	approved
DB00269	prostatic.neoplasms	1	approved
DB00810	parkinson.disease	1	approved
DB00387	parkinson.disease	1	approved
DB00819	epilepsy	1	off-label
DB00158	anemia	2	unknown
DB00380	breast.neoplasms	2	unknown
DB01394	liver.cirrhosis.biliary	2	unknown
DB00788	arthritis.rheumatoid	1	approved
DB01097	arthritis.rheumatoid	1	approved
DB01016	diabetes.mellitus	1	approved
DB01016	diabetes.mellitus.type.2	1	approved
DB00255	prostatic.neoplasms	2	contraindication
DB00255	breast.neoplasms	1	approved
DB00541	neoplasms	2	unknown
DB00541	leukemia	2	clinical_trials
DB00014	prostatic.neoplasms	1	approved
DB00014	breast.neoplasms	1	approved
DB01076	diabetes.mellitus.type.2	2	unknown
DB01076	coronary.disease	1	approved
DB01076	cardiovascular.diseases	1	approved
DB01076	coronary.artery.disease	2	clinical_trials
DB01075	hypersensitivity	1	approved
DB00608	arthritis.rheumatoid	1	approved
DB00603	breast.neoplasms	1	approved
DB00949	epilepsy	1	approved
DB00829	epilepsy	1	approved
DB00605	arthritis.rheumatoid	1	approved
DB00273	epilepsy	2	clinical_trials
DB00471	asthma	1	approved
DB01367	parkinson.disease	1	approved
DB00860	asthma	1	approved
DB00860	hypersensitivity	2	unknown
DB00860	crohn.disease	1	approved
DB00860	psoriasis	1	approved
DB00860	lupus.erythematosus.systemic	1	approved
DB00860	colitis.ulcerative	1	approved
DB00860	multiple.sclerosis	1	approved
DB00860	skin.diseases	2	unknown
DB00860	arthritis.rheumatoid	1	approved
DB01083	diabetes.mellitus	2	unknown
DB01083	diabetes.mellitus.type.2	1	approved
DB01080	epilepsy	1	approved
DB01364	asthma	1	approved
DB01085	head.and.neck.neoplasms	2	unknown
DB00175	cardiovascular.diseases	1	approved
DB00175	coronary.artery.disease	1	approved
DB01001	asthma	1	approved
DB01006	breast.neoplasms	1	approved
DB00268	parkinsonian.disorders	1	approved
DB00268	parkinson.disease	1	approved
DB01005	head.and.neck.neoplasms	1	approved
DB01005	psoriasis	1	approved
DB00570	head.and.neck.neoplasms	1	off-label
DB00570	breast.neoplasms	1	approved
DB00570	kidney.neoplasms	2	unknown
DB00572	asthma	2	unknown
DB01064	asthma	1	approved
DB00619	neoplasms	1	approved
DB00619	leukemia	2	clinical_trials
DB01222	lung.diseases	2	unknown
DB01101	breast.neoplasms	1	approved
DB01101	neoplasms	1	approved
DB01068	epilepsy	1	approved
DB01069	hypersensitivity	1	approved
DB00284	diabetes.mellitus	2	unknown
DB00284	diabetes.mellitus.type.2	1	approved
DB02300	skin.diseases	2	unknown
DB00564	epilepsy	1	approved
DB00563	breast.neoplasms	1	approved
DB00563	crohn.disease	1	approved
DB00563	psoriasis	1	approved
DB00563	leukemia	2	clinical_trials
DB00563	arthritis.rheumatoid	1	approved
DB00445	breast.neoplasms	1	approved
DB00445	neoplasms	2	unknown
DB00376	parkinsonian.disorders	1	approved
DB00376	parkinson.disease	1	approved
DB00165	anemia	2	unknown
DB00169	crohn.disease	2	unknown
DB00169	psoriasis	2	unknown
DB00169	cardiovascular.diseases	2	unknown
DB01274	asthma	1	approved
DB01409	asthma	2	unknown
DB01050	arthritis.rheumatoid	2	unknown
DB01611	lupus.erythematosus.systemic	1	approved
DB01611	arthritis.rheumatoid	1	approved
DB00749	arthritis.rheumatoid	2	unknown
DB00214	liver.cirrhosis	2	contraindication
DB00744	asthma	1	approved
DB00584	kidney.diseases	1	approved
DB00740	amyotrophic.lateral.sclerosis	1	approved
DB00741	asthma	1	approved
DB00741	insulin.resistance	2	unknown
DB00741	psoriasis	2	unknown
DB00741	colitis.ulcerative	2	unknown
DB00741	skin.diseases	2	unknown
DB00741	arthritis.rheumatoid	1	approved
DB00290	neoplasms	2	unknown
DB00586	arthritis.rheumatoid	1	approved
DB00006	myocardial.ischemia	1	approved
DB00063	myocardial.ischemia	2	unknown
DB00063	coronary.disease	2	unknown
DB01216	prostatic.neoplasms	1	approved
DB00843	alzheimer.disease	1	approved
DB01009	arthritis.rheumatoid	1	approved
DB00694	leukemia.myeloid.acute	1	approved
DB00694	leukemia	2	clinical_trials
DB00695	kidney.diseases	1	approved
DB00695	liver.cirrhosis	1	approved
DB01185	breast.neoplasms	1	approved
DB00697	multiple.sclerosis	2	unknown
DB01268	neoplasms	1	approved
DB00361	breast.neoplasms	1	approved
DB00190	parkinsonian.disorders	1	approved
DB00190	parkinson.disease	1	approved
DB01047	skin.diseases	2	unknown
DB00731	diabetes.mellitus	1	approved
DB00731	diabetes.mellitus.type.2	2	unknown
DB01043	alzheimer.disease	1	approved
DB00227	coronary.disease	2	unknown
DB00227	cardiovascular.diseases	2	unknown
DB00227	coronary.artery.disease	2	contraindication
DB00277	asthma	1	approved
DB00959	autoimmune.diseases	2	unknown
DB01114	hypersensitivity	1	approved
DB08868	multiple.sclerosis	1	approved
DB00915	parkinsonian.disorders	1	approved
DB00915	parkinson.disease	1	approved
DB01599	coronary.artery.disease	2	unknown
DB01223	asthma	1	approved
DB00997	leukemia.myeloid.acute	1	approved
DB00997	prostatic.neoplasms	1	approved
DB00997	breast.neoplasms	1	approved
DB00997	neoplasms	1	approved
DB00997	leukemia	2	clinical_trials
DB00996	epilepsy	1	approved
DB00995	arthritis.rheumatoid	1	approved
DB00993	lupus.erythematosus.systemic	1	off-label
DB00993	multiple.sclerosis	1	approved
DB00993	arthritis.rheumatoid	1	approved
DB01196	prostatic.neoplasms	1	approved
DB01219	multiple.sclerosis	2	unknown
DB00999	kidney.diseases	2	contraindication
DB00337	skin.diseases	2	unknown
DB01248	head.and.neck.neoplasms	2	unknown
DB01248	breast.neoplasms	1	approved
DB00883	coronary.disease	1	approved
DB00184	colitis.ulcerative	1	approved
DB00357	prostatic.neoplasms	1	approved
DB00357	breast.neoplasms	1	approved
DB00351	breast.neoplasms	1	approved
DB00181	multiple.sclerosis	1	approved
DB00421	liver.cirrhosis	1	approved
DB00549	asthma	1	approved
DB01039	coronary.disease	2	unknown
DB01039	coronary.artery.disease	2	clinical_trials
DB00482	arthritis.rheumatoid	2	unknown
DB00641	diabetes.mellitus.type.2	2	unknown
DB00641	cardiovascular.diseases	2	unknown
DB00641	coronary.artery.disease	2	contraindication
DB01033	crohn.disease	1	off-label
DB01033	leukemia	1	approved
DB01033	colitis.ulcerative	1	off-label
DB01037	alzheimer.disease	2	unknown
DB01037	parkinson.disease	1	approved
DB00459	psoriasis	1	approved
DB00799	psoriasis	1	approved
DB00903	liver.cirrhosis	2	unknown
DB01200	parkinson.disease	1	approved
DB00987	leukemia.myeloid.acute	1	approved
DB00987	leukemia	2	clinical_trials
DB01204	multiple.sclerosis	1	approved
DB01206	kidney.neoplasms	2	unknown
DB01261	diabetes.mellitus.type.2	1	approved
DB00530	adenocarcinoma	1	approved
DB01124	diabetes.mellitus.type.2	1	approved
DB01120	diabetes.mellitus	1	approved
DB01120	diabetes.mellitus.type.2	1	approved
DB00635	asthma	1	approved
DB00635	hypersensitivity	2	unknown
DB00635	autoimmune.diseases	2	unknown
DB00635	lupus.erythematosus.systemic	1	approved
DB00635	colitis.ulcerative	1	approved
DB00635	multiple.sclerosis	1	approved
DB00635	skin.diseases	1	approved
DB00434	hypersensitivity	2	unknown
DB00437	kidney.diseases	1	approved
DB01128	prostatic.neoplasms	1	approved
DB01029	kidney.diseases	1	approved
DB01029	diabetes.mellitus.type.2	1	approved
DB00328	arthritis.rheumatoid	1	approved
DB00499	prostatic.neoplasms	1	approved
DB00494	parkinson.disease	1	approved
DB06710	breast.neoplasms	2	unknown
DB01024	psoriasis	1	approved
DB00322	colorectal.neoplasms	1	approved
DB00322	adenocarcinoma	1	approved
DB00491	diabetes.mellitus	2	unknown
DB00491	diabetes.mellitus.type.2	2	unknown
DB00936	psoriasis	2	unknown
DB06212	liver.cirrhosis	2	unknown
DB00242	multiple.sclerosis	1	approved
DB01235	parkinsonian.disorders	1	approved
DB01235	parkinson.disease	1	approved
DB00523	skin.diseases	2	unknown
DB01132	diabetes.mellitus	1	approved
DB01132	insulin.resistance	1	approved
DB01132	diabetes.mellitus.type.2	1	approved
DB01138	coronary.disease	2	unknown
DB00104	neoplasms	2	unknown
DB01234	asthma	1	approved
DB00091	psoriasis	2	clinical_trials
DB00091	lupus.erythematosus.systemic	2	unknown
DB00091	arthritis.rheumatoid	1	approved
DB00313	epilepsy	1	approved
DB01427	cardiomyopathy.dilated	2	unknown
DB05271	parkinson.disease	1	approved
DB00331	diabetes.mellitus	1	approved
DB00331	diabetes.mellitus.type.2	1	approved
DB00007	prostatic.neoplasms	1	approved
DB00920	asthma	1	approved
DB00920	hypersensitivity	1	approved
DB00317	adenocarcinoma	1	approved
DB00317	neoplasms	1	approved
DB00412	diabetes.mellitus	1	approved
DB00412	insulin.resistance	1	approved
DB00412	diabetes.mellitus.type.2	1	approved
DB00989	alzheimer.disease	1	approved
DB00989	parkinson.disease	1	approved
DB00795	inflammatory.bowel.diseases	1	approved
DB00795	crohn.disease	1	off-label
DB00795	colitis.ulcerative	1	approved
DB00795	arthritis.rheumatoid	1	approved
DB00794	epilepsy	1	approved
DB00790	coronary.disease	2	unknown
DB00714	parkinson.disease	1	approved
DB00245	parkinson.disease	1	approved
DB00244	inflammatory.bowel.diseases	1	approved
DB00244	colitis.ulcerative	1	approved
DB00555	epilepsy	1	approved
