#Node	Drug
6286	DB01003
3778	DB01003
153	DB01001
154	DB01001
1588	DB01006
153	DB00571
3350	DB00571
155	DB00571
3351	DB00571
154	DB00571
7283	DB00570
203068	DB00570
7846	DB00570
3725	DB00570
1131	DB00572
1129	DB00572
1132	DB00572
1128	DB00572
1133	DB00572
3757	DB00204
3768	DB00204
6331	DB00680
1131	DB00376
1129	DB00376
1132	DB00376
1128	DB00376
1133	DB00376
6331	DB00379
196	DB00379
1644	DB00190
7153	DB00997
9254	DB00996
134	DB00996
774	DB00996
3551	DB00995
25824	DB00995
3251	DB00993
6559	DB00999
771	DB00999
762	DB00999
760	DB00999
768	DB00999
759	DB00999
3778	DB00999
51284	DB01611
54106	DB01611
367	DB06710
8647	DB01016
3762	DB01016
10060	DB01016
3758	DB01016
1080	DB01016
3767	DB01016
6833	DB01016
19	DB01016
5621	DB00759
240	DB00471
10800	DB00471
148	DB01364
6530	DB01364
43	DB01364
6571	DB01364
7298	DB01101
6331	DB00564
6256	DB00749
5742	DB00749
5743	DB00749
6331	DB00740
23657	DB00740
2908	DB00741
301	DB00741
5142	DB00651
135	DB00651
27115	DB00651
5144	DB00651
5141	DB00651
134	DB00651
5150	DB00651
5143	DB00651
7155	DB00694
7153	DB00694
6557	DB00695
760	DB00695
11188	DB00697
150	DB00697
151	DB00697
152	DB00697
203068	DB00361
7852	DB06809
2915	DB06201
1136	DB00184
1141	DB00184
1143	DB00184
1138	DB00184
1135	DB00184
1137	DB00184
1139	DB00184
3269	DB01075
5423	DB00987
590	DB00989
43	DB00989
6240	DB01073
1633	DB01073
5422	DB01073
1812	DB05271
1815	DB05271
1816	DB05271
3350	DB05271
1813	DB05271
151	DB05271
1814	DB05271
2908	DB00620
5320	DB00328
5742	DB00328
5743	DB00328
5468	DB00328
2739	DB00328
1131	DB01069
3356	DB01069
1129	DB01069
1132	DB01069
148	DB01069
801	DB01069
1813	DB01069
1128	DB01069
3269	DB01069
1133	DB01069
7153	DB01204
81551	DB01206
6751	DB00104
6755	DB00104
6752	DB00104
153	DB01118
3757	DB01118
8912	DB01118
9254	DB01118
5142	DB01113
10846	DB01113
6532	DB01114
3269	DB01114
6530	DB01114
6531	DB01114
5465	DB01039
153	DB00221
3066	DB00227
3156	DB00227
3683	DB00227
1800	DB01597
1066	DB01599
19	DB01599
4306	DB00421
367	DB00421
3689	DB00641
3156	DB00641
552	DB06212
554	DB06212
5139	DB01427
7124	DB01427
5142	DB01427
3690	DB00775
3674	DB00775
367	DB00499
196	DB00499
819	DB00091
5478	DB00091
5535	DB00091
2147	DB00006
11255	DB00667
3269	DB00667
3274	DB00667
59340	DB00667
3758	DB01124
6833	DB01124
7422	DB01120
6833	DB01120
367	DB01128
2908	DB00959
1128	DB00387
1129	DB00387
1132	DB00387
1131	DB00387
7155	DB00380
7153	DB00380
6557	DB00903
476	DB00903
7153	DB00537
1136	DB00674
43	DB00674
1134	DB00674
590	DB00674
1141	DB00674
1138	DB00674
1144	DB00674
1143	DB00674
1139	DB00674
1145	DB00674
1146	DB00674
1135	DB00674
1137	DB00674
1140	DB00674
1956	DB00530
8856	DB00530
3758	DB00222
3767	DB00222
6833	DB00222
7067	DB00279
7068	DB00279
8829	DB04895
476	DB00390
5241	DB00396
4306	DB00396
1586	DB00396
2099	DB00396
3358	DB00714
1812	DB00714
3352	DB00714
3356	DB00714
152	DB00714
1815	DB00714
1816	DB00714
3357	DB00714
3350	DB00714
150	DB00714
1813	DB00714
151	DB00714
50632	DB00714
3351	DB00714
1814	DB00714
3757	DB04855
6323	DB04855
775	DB04855
152	DB04855
153	DB04855
778	DB04855
776	DB04855
148	DB04855
782	DB04855
784	DB04855
150	DB04855
151	DB04855
779	DB04855
146	DB04855
785	DB04855
147	DB04855
783	DB04855
2908	DB00860
7299	DB00600
6331	DB01195
6329	DB01195
23193	DB00491
8972	DB00491
2595	DB00491
2548	DB00491
7498	DB00437
6557	DB00214
3249	DB00522
6258	DB00523
5914	DB00523
6256	DB00523
6257	DB00523
5915	DB00523
5916	DB00523
1128	DB00215
6532	DB00215
3269	DB00215
148	DB00215
2475	DB00337
2280	DB00337
2182	DB00412
5468	DB00412
185	DB00678
6833	DB00672
2100	DB00255
2099	DB00255
2104	DB00255
2798	DB00007
5139	DB00277
3066	DB00277
5142	DB00277
135	DB00277
8654	DB00277
136	DB00277
5141	DB00277
134	DB00277
53637	DB08868
7298	DB00322
4881	DB00883
5627	DB00464
5624	DB00464
2908	DB00351
5241	DB00351
773	DB00230
6258	DB00459
5914	DB00459
6256	DB00459
5915	DB00459
6257	DB00459
5916	DB00459
5947	DB00459
5241	DB00603
2099	DB00603
5742	DB00605
5743	DB00605
5595	DB00605
231	DB00605
5467	DB00605
2099	DB00269
2936	DB00262
2099	DB00286
279	DB00284
6476	DB00284
8972	DB00284
2548	DB00284
2224	DB00282
1956	DB00281
6336	DB00281
6331	DB00281
1131	DB00280
6331	DB00280
1129	DB00280
3751	DB00280
1128	DB00280
3752	DB00280
43	DB00843
3356	DB00843
2567	DB01068
2569	DB01068
2557	DB01068
2565	DB01068
2562	DB01068
2560	DB01068
2570	DB01068
2566	DB01068
2554	DB01068
2555	DB01068
706	DB01068
2556	DB01068
2563	DB01068
2561	DB01068
3643	DB00046
3480	DB00046
2185	DB01097
196	DB01097
2557	DB00794
2891	DB00794
1137	DB00794
2554	DB00794
2555	DB00794
2556	DB00794
2898	DB00794
2559	DB00794
1139	DB00794
3458	DB01250
1803	DB01076
3156	DB01076
196	DB01076
6326	DB00555
780	DB00619
25	DB00619
1436	DB00619
5156	DB00619
5159	DB00619
4914	DB00619
3815	DB00619
3320	DB00615
7184	DB00615
6323	DB00273
762	DB00273
760	DB00273
2554	DB00273
2897	DB00273
153	DB00852
6531	DB00852
150	DB00852
6532	DB00852
148	DB00852
6530	DB00852
154	DB00852
23649	DB00851
5226	DB00851
9900	DB01202
774	DB01202
9568	DB00181
2550	DB00181
5729	DB00716
10800	DB00716
3320	DB00716
2357	DB00716
2908	DB01234
190	DB01234
4843	DB01234
301	DB01234
5468	DB01014
5742	DB01014
240	DB01014
5743	DB01014
2194	DB01083
5406	DB01083
8513	DB01083
18	DB01080
2550	DB01080
1128	DB01085
1129	DB01085
1131	DB01085
81027	DB01248
596	DB01248
64805	DB01240
5740	DB01240
5739	DB01240
153	DB01064
5295	DB01064
155	DB01064
8503	DB01064
5594	DB01064
5296	DB01064
154	DB01064
7153	DB00445
1105	DB00445
7153	DB00444
81027	DB01394
203068	DB01394
1128	DB01409
1129	DB01409
1131	DB01409
5742	DB01009
3577	DB01009
5743	DB01009
4129	DB01367
596	DB01367
7421	DB00136
1813	DB00915
116443	DB00915
4837	DB00627
23475	DB00627
5139	DB01303
3066	DB01303
135	DB01303
5141	DB01303
134	DB01303
7277	DB00541
203068	DB00541
3690	DB00063
2567	DB00829
2569	DB00829
2565	DB00829
2562	DB00829
2560	DB00829
2570	DB00829
2566	DB00829
2554	DB00829
2555	DB00829
706	DB00829
2556	DB00829
2563	DB00829
2561	DB00829
2149	DB00086
5340	DB00086
154	DB01274
2908	DB00588
5241	DB00588
4306	DB00588
5321	DB00588
3757	DB01182
6331	DB01182
5618	DB01185
2099	DB01185
367	DB01185
2908	DB01185
5327	DB01050
5742	DB01050
5743	DB01050
5468	DB01050
1080	DB01050
596	DB01050
7056	DB01050
2169	DB01050
5264	DB00126
55217	DB00126
5066	DB00126
8424	DB00126
112398	DB00126
1621	DB00126
64175	DB00126
221120	DB00126
5033	DB00126
3938	DB00126
79676	DB00126
54583	DB00126
5351	DB00126
5352	DB00126
54681	DB00126
112399	DB00126
121642	DB00126
9963	DB00126
8985	DB00126
3290	DB00635
2908	DB00635
3758	DB00839
5443	DB00836
4986	DB00836
801	DB00836
4988	DB00836
773	DB00836
4985	DB00836
6559	DB01119
760	DB01119
3767	DB01119
476	DB01119
759	DB01119
3778	DB01119
3757	DB00908
3775	DB00908
6331	DB00908
3358	DB00434
1131	DB00434
3356	DB00434
1129	DB00434
1128	DB00434
3269	DB00434
3358	DB00268
1812	DB00268
3352	DB00268
1815	DB00268
152	DB00268
3356	DB00268
1816	DB00268
3350	DB00268
150	DB00268
1813	DB00268
151	DB00268
3357	DB00268
3351	DB00268
1814	DB00268
1803	DB01261
2908	DB01047
6608	DB01047
3359	DB01043
2903	DB01043
116443	DB01043
2904	DB01043
153	DB01193
154	DB01193
2099	DB01196
2100	DB01196
4130	DB01196
4133	DB01196
5170	DB00482
5743	DB00482
153	DB00489
3757	DB00489
154	DB00489
5564	DB00331
2350	DB00158
1128	DB00245
3269	DB00245
6531	DB00245
1645	DB00936
5742	DB00936
5743	DB00936
2324	DB01268
2321	DB01268
3791	DB01268
2322	DB01268
1436	DB01268
5156	DB01268
5159	DB01268
3815	DB01268
3251	DB01033
8654	DB00806
135	DB00806
5142	DB00806
4907	DB00806
5141	DB00806
134	DB00806
8566	DB00165
7421	DB00146
6715	DB01216
6716	DB01216
6261	DB01219
6331	DB01035
1786	DB01035
1719	DB00563
1312	DB00494
5151	DB00920
5143	DB00920
5142	DB00920
5144	DB00920
5226	DB00920
5141	DB00920
5150	DB00920
3269	DB00920
27115	DB00920
8622	DB00920
1128	DB00810
1135	DB00810
762	DB00819
760	DB00819
358	DB00819
759	DB00819
2159	DB01225
462	DB01225
3156	DB00175
7421	DB02300
4129	DB01037
4128	DB01037
7124	DB00608
2939	DB00608
54106	DB00608
3358	DB01200
1812	DB01200
3352	DB01200
1815	DB01200
152	DB01200
3356	DB01200
1816	DB01200
3351	DB01200
3350	DB01200
150	DB01200
1813	DB01200
146	DB01200
151	DB01200
3357	DB01200
148	DB01200
147	DB01200
3363	DB01200
1814	DB01200
185	DB01029
3725	DB01029
2977	DB01020
2677	DB01022
632	DB01022
3614	DB01024
3615	DB01024
50484	DB00242
5426	DB00242
54107	DB00242
6240	DB00242
56655	DB00242
6241	DB00242
5427	DB00242
4860	DB00242
5422	DB00242
36	DB00313
18	DB00313
9734	DB00313
1956	DB00317
3358	DB00248
1812	DB00248
3352	DB00248
1815	DB00248
152	DB00248
3356	DB00248
1816	DB00248
3350	DB00248
150	DB00248
1813	DB00248
151	DB00248
3357	DB00248
3351	DB00248
3363	DB00248
1814	DB00248
5914	DB00799
6257	DB00799
5915	DB00799
5916	DB00799
23657	DB00795
1147	DB00795
5742	DB00795
5743	DB00795
3551	DB00795
5468	DB00795
38	DB00795
240	DB00795
1636	DB00790
1147	DB00244
5742	DB00244
5743	DB00244
3551	DB00244
5468	DB00244
4353	DB00244
240	DB00244
2903	DB00949
116443	DB00949
2904	DB00949
1636	DB00584
1812	DB01235
1815	DB01235
1816	DB01235
1813	DB01235
1814	DB01235
5320	DB00586
5742	DB00586
5743	DB00586
6329	DB00586
3786	DB00586
41	DB00586
3785	DB00586
240	DB00586
5468	DB01132
3643	DB01306
595	DB01169
3551	DB01169
5595	DB01169
5594	DB01169
7296	DB01169
3725	DB01169
207	DB01169
5742	DB00788
5743	DB00788
2100	DB00783
2099	DB00783
8856	DB00783
10800	DB00549
5468	DB00731
6833	DB00731
2798	DB00014
3973	DB00014
3358	DB00734
1812	DB00734
3352	DB00734
1815	DB00734
152	DB00734
3356	DB00734
3350	DB00734
150	DB00734
1813	DB00734
151	DB00734
148	DB00734
147	DB00734
3269	DB00734
1814	DB00734
2100	DB00675
2099	DB00675
5340	DB00302
3775	DB00308
3757	DB00308
775	DB00308
3767	DB00308
90134	DB00308
782	DB00308
786	DB00308
7153	DB01137
112724	DB00162
220	DB00162
145226	DB00162
5959	DB00162
51109	DB00162
5949	DB00162
50700	DB00162
216	DB00162
57665	DB00162
8854	DB00162
6017	DB00162
9227	DB00162
5947	DB00162
7421	DB00169
3978	DB00290
3980	DB00290
1244	DB01138
1588	DB00357
1583	DB00357
2908	DB01222
5139	DB01223
3066	DB01223
134	DB01223
786	DB00343
3358	DB01224
1815	DB01224
1816	DB01224
3350	DB01224
150	DB01224
1128	DB01224
3363	DB01224
1133	DB01224
1129	DB01224
1132	DB01224
148	DB01224
3354	DB01224
3362	DB01224
3269	DB01224
1131	DB01224
1812	DB01224
3352	DB01224
3356	DB01224
1813	DB01224
151	DB01224
3351	DB01224
1814	DB01224
152	DB01224
3359	DB01224
146	DB01224
147	DB01224
2224	DB00399
9453	DB00399
8856	DB00163
1606	DB00163
284904	DB00163
5515	DB00163
5516	DB00163
5578	DB00163
240	DB00163
5579	DB00163
23541	DB00163
240	DB00744
3757	DB00661
6331	DB00661
775	DB00661
776	DB00661
778	DB00661
3767	DB00661
8911	DB00661
782	DB00661
784	DB00661
774	DB00661
779	DB00661
6532	DB00661
785	DB00661
783	DB00661
773	DB00661
8913	DB00661
5095	DB00121
5096	DB00121
3141	DB00121
56922	DB00121
32	DB00121
5091	DB00121
31	DB00121
64087	DB00121
2740	DB06655
6240	DB01005
