method	extension	roc_auc	pr_auc	mcc	sensitivity	f_measure
ANUBIX	no	0.8489587975228402	0.4009496362873528	0.288036644508832	0.7824606715191359	0.26773519723628186
BinoX	no	0.7284982037514199	0.32242723607817786	0.22891064685221993	0.671973565635326	0.3232308637069682
NEAT	no	0.7588860683059793	0.4480163385137537	0.2569010844753837	0.6939925913995812	0.33729941291585125
prox	no	0.8681510975713493	0.618784554333259	0.30326056097004417	0.7933787274007983	0.2806594958262386
