method	extension	roc_auc	pr_auc	mcc	sensitivity	f_measure
ANUBIX	no	0.6673072082998317	0.10240311219556045	0.09371155269422819	0.43283582089552236	0.09098039215686274
BinoX	no	0.7140718778855032	0.24206471636496457	0.10169906289021259	0.6354166666666666	0.10252100840336136
NEAT	no	0.6568513141751064	0.14093196349861328	0.07449556007036078	0.6021505376344086	0.08874801901743265
prox	no	0.676986347686646	0.11606410928851084	0.08388107705956137	0.4925373134328358	0.08009708737864078
