method	extension	roc_auc	pr_auc	mcc	recall	sensitivity	f_measure
ANUBIX	no	0.6453940555807192	0.10932450425153793	0.10486662241184543	0.38612565445026176	0.38612565445026176	0.14034253092293053
BinoX	no	0.5406599556966596	0.09136056380187707	0.05662144447728515	0.1256544502617801	0.1256544502617801	0.10272873194221509
NEAT	no	0.5347808190286202	0.07193891772986348	0.04680512973839283	0.12041884816753927	0.12041884816753927	0.09455292908530319
prox	no	0.6327276272210215	0.11171423126812273	0.0838596594578406	0.42539267015706805	0.42539267015706805	0.12211159120796541
